R Reference Guide
…
1.2.1 filter()

Next we can use the filter() command to filter out some of the data. Let’s say we want to filter out departure delay times greater than 1:

flights %>%   
  filter(dep_delay > 1)

# A tibble: 120,382 × 19
    year month   day dep_time sched_dep_time dep_delay arr_time sched_arr_time
   <int> <int> <int>    <int>          <int>     <dbl>    <int>          <int>
 1  2013     1     1      517            515         2      830            819
 2  2013     1     1      533            529         4      850            830
 3  2013     1     1      542            540         2      923            850
 4  2013     1     1      608            600         8      807            735
 5  2013     1     1      611            600        11      945            931
 6  2013     1     1      613            610         3      925            921
 7  2013     1     1      623            610        13      920            915
 8  2013     1     1      632            608        24      740            728
 9  2013     1     1      644            636         8      931            940
10  2013     1     1      702            700         2     1058           1014
# ℹ 120,372 more rows
# ℹ 11 more variables: arr_delay <dbl>, carrier <chr>, flight <int>,
#   tailnum <chr>, origin <chr>, dest <chr>, air_time <dbl>, distance <dbl>,
#   hour <dbl>, minute <dbl>, time_hour <dttm>

Or we can also add more than one filter. Let’s say we want to filter the depature delays > 1 AND are coming from the JFK airport.

flights %>%   
  filter(dep_delay > 1 & origin == "JFK")

# A tibble: 39,307 × 19
    year month   day dep_time sched_dep_time dep_delay arr_time sched_arr_time
   <int> <int> <int>    <int>          <int>     <dbl>    <int>          <int>
 1  2013     1     1      542            540         2      923            850
 2  2013     1     1      611            600        11      945            931
 3  2013     1     1      613            610         3      925            921
 4  2013     1     1      702            700         2     1058           1014
 5  2013     1     1      743            730        13     1107           1100
 6  2013     1     1      743            730        13     1059           1056
 7  2013     1     1      803            800         3     1132           1144
 8  2013     1     1      805            800         5     1118           1106
 9  2013     1     1      817            810         7     1005            948
10  2013     1     1      826            715        71     1136           1045
# ℹ 39,297 more rows
# ℹ 11 more variables: arr_delay <dbl>, carrier <chr>, flight <int>,
#   tailnum <chr>, origin <chr>, dest <chr>, air_time <dbl>, distance <dbl>,
#   hour <dbl>, minute <dbl>, time_hour <dttm>

You can also use “or” reasoning so a condition is either one or the other. Use the straight line (|) for the “or” reasoning. Note that this yields more results than the and reasoning.

flights %>%   
  filter(dep_delay > 1 | origin == "JFK") # either has a departure delay > 1 OR is coming from JFK

# A tibble: 192,354 × 19
    year month   day dep_time sched_dep_time dep_delay arr_time sched_arr_time
   <int> <int> <int>    <int>          <int>     <dbl>    <int>          <int>
 1  2013     1     1      517            515         2      830            819
 2  2013     1     1      533            529         4      850            830
 3  2013     1     1      542            540         2      923            850
 4  2013     1     1      544            545        -1     1004           1022
 5  2013     1     1      557            600        -3      838            846
 6  2013     1     1      558            600        -2      849            851
 7  2013     1     1      558            600        -2      853            856
 8  2013     1     1      558            600        -2      924            917
 9  2013     1     1      559            559         0      702            706
10  2013     1     1      606            610        -4      837            845
# ℹ 192,344 more rows
# ℹ 11 more variables: arr_delay <dbl>, carrier <chr>, flight <int>,
#   tailnum <chr>, origin <chr>, dest <chr>, air_time <dbl>, distance <dbl>,
#   hour <dbl>, minute <dbl>, time_hour <dttm>

1.2.2 arrange()

the arrange() command changes the order of the rows based on the value of the columns. For example, this one below arranges the year, month, and day by departure delay.

flights %>%   
  arrange(year, month, day, dep_delay)

# A tibble: 336,776 × 19
    year month   day dep_time sched_dep_time dep_delay arr_time sched_arr_time
   <int> <int> <int>    <int>          <int>     <dbl>    <int>          <int>
 1  2013     1     1      940            955       -15     1226           1220
 2  2013     1     1     2030           2045       -15     2150           2225
 3  2013     1     1     1716           1730       -14     1947           1953
 4  2013     1     1      946            959       -13     1146           1202
 5  2013     1     1     2217           2229       -12      249            315
 6  2013     1     1      839            850       -11     1027           1035
 7  2013     1     1     1849           1900       -11     2131           2129
 8  2013     1     1      800            810       -10      949            955
 9  2013     1     1      805            815       -10     1006           1010
10  2013     1     1      820            830       -10      940            954
# ℹ 336,766 more rows
# ℹ 11 more variables: arr_delay <dbl>, carrier <chr>, flight <int>,
#   tailnum <chr>, origin <chr>, dest <chr>, air_time <dbl>, distance <dbl>,
#   hour <dbl>, minute <dbl>, time_hour <dttm>

In this code below, the results are arranged by descending reaction time.

flights %>%   
  arrange(desc(dep_delay))

# A tibble: 336,776 × 19
    year month   day dep_time sched_dep_time dep_delay arr_time sched_arr_time
   <int> <int> <int>    <int>          <int>     <dbl>    <int>          <int>
 1  2013     1     9      641            900      1301     1242           1530
 2  2013     6    15     1432           1935      1137     1607           2120
 3  2013     1    10     1121           1635      1126     1239           1810
 4  2013     9    20     1139           1845      1014     1457           2210
 5  2013     7    22      845           1600      1005     1044           1815
 6  2013     4    10     1100           1900       960     1342           2211
 7  2013     3    17     2321            810       911      135           1020
 8  2013     6    27      959           1900       899     1236           2226
 9  2013     7    22     2257            759       898      121           1026
10  2013    12     5      756           1700       896     1058           2020
# ℹ 336,766 more rows
# ℹ 11 more variables: arr_delay <dbl>, carrier <chr>, flight <int>,
#   tailnum <chr>, origin <chr>, dest <chr>, air_time <dbl>, distance <dbl>,
#   hour <dbl>, minute <dbl>, time_hour <dttm>

1.2.3 distinct() and count()

distinct finds all the unique rows in a data set and then primarily operates on those rows.

flights %>%   
  distinct() # finds any duplicate values (if any) # looks like there are none!

# A tibble: 336,776 × 19
    year month   day dep_time sched_dep_time dep_delay arr_time sched_arr_time
   <int> <int> <int>    <int>          <int>     <dbl>    <int>          <int>
 1  2013     1     1      517            515         2      830            819
 2  2013     1     1      533            529         4      850            830
 3  2013     1     1      542            540         2      923            850
 4  2013     1     1      544            545        -1     1004           1022
 5  2013     1     1      554            600        -6      812            837
 6  2013     1     1      554            558        -4      740            728
 7  2013     1     1      555            600        -5      913            854
 8  2013     1     1      557            600        -3      709            723
 9  2013     1     1      557            600        -3      838            846
10  2013     1     1      558            600        -2      753            745
# ℹ 336,766 more rows
# ℹ 11 more variables: arr_delay <dbl>, carrier <chr>, flight <int>,
#   tailnum <chr>, origin <chr>, dest <chr>, air_time <dbl>, distance <dbl>,
#   hour <dbl>, minute <dbl>, time_hour <dttm>

Next we are going to find all the unique pairs of origin and destination.

flights %>%   
  distinct(origin, dest)

# A tibble: 224 × 2
   origin dest 
   <chr>  <chr>
 1 EWR    IAH  
 2 LGA    IAH  
 3 JFK    MIA  
 4 JFK    BQN  
 5 LGA    ATL  
 6 EWR    ORD  
 7 EWR    FLL  
 8 LGA    IAD  
 9 JFK    MCO  
10 LGA    ORD  
# ℹ 214 more rows

Alternatively, you can keep all the other columns using .keep_all=TRUE.

flights %>%   
  distinct(origin, dest, .keep_all=TRUE)

# A tibble: 224 × 19
    year month   day dep_time sched_dep_time dep_delay arr_time sched_arr_time
   <int> <int> <int>    <int>          <int>     <dbl>    <int>          <int>
 1  2013     1     1      517            515         2      830            819
 2  2013     1     1      533            529         4      850            830
 3  2013     1     1      542            540         2      923            850
 4  2013     1     1      544            545        -1     1004           1022
 5  2013     1     1      554            600        -6      812            837
 6  2013     1     1      554            558        -4      740            728
 7  2013     1     1      555            600        -5      913            854
 8  2013     1     1      557            600        -3      709            723
 9  2013     1     1      557            600        -3      838            846
10  2013     1     1      558            600        -2      753            745
# ℹ 214 more rows
# ℹ 11 more variables: arr_delay <dbl>, carrier <chr>, flight <int>,
#   tailnum <chr>, origin <chr>, dest <chr>, air_time <dbl>, distance <dbl>,
#   hour <dbl>, minute <dbl>, time_hour <dttm>

You can also use the count() command to find the number of occurrences instead.

flights %>%   
  count(origin, dest, sort=TRUE)

# A tibble: 224 × 3
   origin dest      n
   <chr>  <chr> <int>
 1 JFK    LAX   11262
 2 LGA    ATL   10263
 3 LGA    ORD    8857
 4 JFK    SFO    8204
 5 LGA    CLT    6168
 6 EWR    ORD    6100
 7 JFK    BOS    5898
 8 LGA    MIA    5781
 9 JFK    MCO    5464
10 EWR    BOS    5327
# ℹ 214 more rows
…
relocate

1.3.1 mutate()

First I’m going to use mutate. Mutate is used when you want to add new columns calculated from other ones. I want to add three new columns: gain, hours, and gain_per_hr.

flights %>%   
  mutate(     
    gain = dep_delay - arr_delay,     
    hours = air_time / 60,     
    gain_per_hour = gain / hours,    
    .keep = "used" # indicates that I want to keep the columns I used in the function.   
    )

# A tibble: 336,776 × 6
   dep_delay arr_delay air_time  gain hours gain_per_hour
       <dbl>     <dbl>    <dbl> <dbl> <dbl>         <dbl>
 1         2        11      227    -9 3.78          -2.38
 2         4        20      227   -16 3.78          -4.23
 3         2        33      160   -31 2.67         -11.6 
 4        -1       -18      183    17 3.05           5.57
 5        -6       -25      116    19 1.93           9.83
 6        -4        12      150   -16 2.5           -6.4 
 7        -5        19      158   -24 2.63          -9.11
 8        -3       -14       53    11 0.883         12.5 
 9        -3        -8      140     5 2.33           2.14
10        -2         8      138   -10 2.3           -4.35
# ℹ 336,766 more rows

We can use .before and .after to put the columns before or after a specific column.

flights %>%   
  mutate(     
    gain = dep_delay - arr_delay,     
    hours = air_time / 60,     
    gain_per_hour = gain / hours,     
    .before = 1   
    )

# A tibble: 336,776 × 22
    gain hours gain_per_hour  year month   day dep_time sched_dep_time dep_delay
   <dbl> <dbl>         <dbl> <int> <int> <int>    <int>          <int>     <dbl>
 1    -9 3.78          -2.38  2013     1     1      517            515         2
 2   -16 3.78          -4.23  2013     1     1      533            529         4
 3   -31 2.67         -11.6   2013     1     1      542            540         2
 4    17 3.05           5.57  2013     1     1      544            545        -1
 5    19 1.93           9.83  2013     1     1      554            600        -6
 6   -16 2.5           -6.4   2013     1     1      554            558        -4
 7   -24 2.63          -9.11  2013     1     1      555            600        -5
 8    11 0.883         12.5   2013     1     1      557            600        -3
 9     5 2.33           2.14  2013     1     1      557            600        -3
10   -10 2.3           -4.35  2013     1     1      558            600        -2
# ℹ 336,766 more rows
# ℹ 13 more variables: arr_time <int>, sched_arr_time <int>, arr_delay <dbl>,
#   carrier <chr>, flight <int>, tailnum <chr>, origin <chr>, dest <chr>,
#   air_time <dbl>, distance <dbl>, hour <dbl>, minute <dbl>, time_hour <dttm>

flights %>%  
  mutate(     
    gain = dep_delay - arr_delay,     
    hours = air_time / 60,     
    gain_per_hour = gain / hours,     
    .after = 1   
    )

# A tibble: 336,776 × 22
    year  gain hours gain_per_hour month   day dep_time sched_dep_time dep_delay
   <int> <dbl> <dbl>         <dbl> <int> <int>    <int>          <int>     <dbl>
 1  2013    -9 3.78          -2.38     1     1      517            515         2
 2  2013   -16 3.78          -4.23     1     1      533            529         4
 3  2013   -31 2.67         -11.6      1     1      542            540         2
 4  2013    17 3.05           5.57     1     1      544            545        -1
 5  2013    19 1.93           9.83     1     1      554            600        -6
 6  2013   -16 2.5           -6.4      1     1      554            558        -4
 7  2013   -24 2.63          -9.11     1     1      555            600        -5
 8  2013    11 0.883         12.5      1     1      557            600        -3
 9  2013     5 2.33           2.14     1     1      557            600        -3
10  2013   -10 2.3           -4.35     1     1      558            600        -2
# ℹ 336,766 more rows
# ℹ 13 more variables: arr_time <int>, sched_arr_time <int>, arr_delay <dbl>,
#   carrier <chr>, flight <int>, tailnum <chr>, origin <chr>, dest <chr>,
#   air_time <dbl>, distance <dbl>, hour <dbl>, minute <dbl>, time_hour <dttm>

1.3.2 select()

The next one we are going to go over is select. Select allows us to… well, select specific columns.

flights %>%   
  select(year, month, day)

# A tibble: 336,776 × 3
    year month   day
   <int> <int> <int>
 1  2013     1     1
 2  2013     1     1
 3  2013     1     1
 4  2013     1     1
 5  2013     1     1
 6  2013     1     1
 7  2013     1     1
 8  2013     1     1
 9  2013     1     1
10  2013     1     1
# ℹ 336,766 more rows

Selecting columns between specific columns using a colon.

flights %>%   
  select(year:day)

# A tibble: 336,776 × 3
    year month   day
   <int> <int> <int>
 1  2013     1     1
 2  2013     1     1
 3  2013     1     1
 4  2013     1     1
 5  2013     1     1
 6  2013     1     1
 7  2013     1     1
 8  2013     1     1
 9  2013     1     1
10  2013     1     1
# ℹ 336,766 more rows

Select all columns EXCEPT for those from year to day:

flights %>%  
  select(!year:day)

# A tibble: 336,776 × 16
   dep_time sched_dep_time dep_delay arr_time sched_arr_time arr_delay carrier
      <int>          <int>     <dbl>    <int>          <int>     <dbl> <chr>  
 1      517            515         2      830            819        11 UA     
 2      533            529         4      850            830        20 UA     
 3      542            540         2      923            850        33 AA     
 4      544            545        -1     1004           1022       -18 B6     
 5      554            600        -6      812            837       -25 DL     
 6      554            558        -4      740            728        12 UA     
 7      555            600        -5      913            854        19 B6     
 8      557            600        -3      709            723       -14 EV     
 9      557            600        -3      838            846        -8 B6     
10      558            600        -2      753            745         8 AA     
# ℹ 336,766 more rows
# ℹ 9 more variables: flight <int>, tailnum <chr>, origin <chr>, dest <chr>,
#   air_time <dbl>, distance <dbl>, hour <dbl>, minute <dbl>, time_hour <dttm>

Select columns that are just characters:

flights %>%   
  select(where(is.character))

# A tibble: 336,776 × 4
   carrier tailnum origin dest 
   <chr>   <chr>   <chr>  <chr>
 1 UA      N14228  EWR    IAH  
 2 UA      N24211  LGA    IAH  
 3 AA      N619AA  JFK    MIA  
 4 B6      N804JB  JFK    BQN  
 5 DL      N668DN  LGA    ATL  
 6 UA      N39463  EWR    ORD  
 7 B6      N516JB  EWR    FLL  
 8 EV      N829AS  LGA    IAD  
 9 B6      N593JB  JFK    MCO  
10 AA      N3ALAA  LGA    ORD  
# ℹ 336,766 more rows
…
starts_with("abc"): matches names that begin with “abc”.

ends_with("xyz"): matches names that end with “xyz”.

contains("ijk"): matches names that contain “ijk”.

num_range("x", 1:3): matches x1, x2 and x3.

You can also rename variables using the equal sign:

flights %>%   
  select(tail_num = tailnum)

# A tibble: 336,776 × 1
   tail_num
   <chr>   
 1 N14228  
 2 N24211  
 3 N619AA  
 4 N804JB  
 5 N668DN  
 6 N39463  
 7 N516JB  
 8 N829AS  
 9 N593JB  
10 N3ALAA  
# ℹ 336,766 more rows

1.3.3 rename()

Rename is very straightforward. You can rename your variables within the table using the command with the equal sign.

flights %>%   
  rename(tail_num = tailnum)

# A tibble: 336,776 × 19
    year month   day dep_time sched_dep_time dep_delay arr_time sched_arr_time
   <int> <int> <int>    <int>          <int>     <dbl>    <int>          <int>
 1  2013     1     1      517            515         2      830            819
 2  2013     1     1      533            529         4      850            830
 3  2013     1     1      542            540         2      923            850
 4  2013     1     1      544            545        -1     1004           1022
 5  2013     1     1      554            600        -6      812            837
 6  2013     1     1      554            558        -4      740            728
 7  2013     1     1      555            600        -5      913            854
 8  2013     1     1      557            600        -3      709            723
 9  2013     1     1      557            600        -3      838            846
10  2013     1     1      558            600        -2      753            745
# ℹ 336,766 more rows
# ℹ 11 more variables: arr_delay <dbl>, carrier <chr>, flight <int>,
#   tail_num <chr>, origin <chr>, dest <chr>, air_time <dbl>, distance <dbl>,
#   hour <dbl>, minute <dbl>, time_hour <dttm>
…
